{ 
  "users": [
    {
      "id": 1,
      "email": "jsrutton0@so-net.ne.jp",
      "password": "8jrChwz84YO",
      "username": "jsrutton0",
      "first_name": "Judy",
      "last_name": "Srutton"
    },
    {
      "id": 2,
      "email": "ualejo1@latimes.com",
      "password": "PTmlAh",
      "username": "ualejo1",
      "first_name": "Uriel",
      "last_name": "Alejo"
    },
    {
      "id": 3,
      "email": "rdaens2@g.co",
      "password": "ab9SPsx2jYC3",
      "username": "rdaens2",
      "first_name": "Rafa",
      "last_name": "Daens"
    },
    {
      "id": 4,
      "email": "gdominy3@desdev.cn",
      "password": "XsUAQGQe",
      "username": "gdominy3",
      "first_name": "Giff",
      "last_name": "Dominy"
    },
    {
      "id": 5,
      "email": "kandrosik4@dailymotion.com",
      "password": "JGtSFSUE1JTj",
      "username": "kandrosik4",
      "first_name": "Klarika",
      "last_name": "Androsik"
    }
  ]
}